[
    {
        "pk": 184,
        "model": "utilities.country",
        "fields": {
            "iso_code": "USA",
            "name": "United States",
            "fema_code": "US",
            "sort_order": 1
        }
    },
    {
        "pk": 1,
        "model": "utilities.country",
        "fields": {
            "iso_code": "AFG",
            "name": "Afghanistan",
            "fema_code": "AF",
            "sort_order": 2
        }
    },
    {
        "pk": 2,
        "model": "utilities.country",
        "fields": {
            "iso_code": "ALB",
            "name": "Albania",
            "fema_code": "AL",
            "sort_order": 3
        }
    },
    {
        "pk": 3,
        "model": "utilities.country",
        "fields": {
            "iso_code": "DZA",
            "name": "Algeria",
            "fema_code": "AG",
            "sort_order": 4
        }
    },
    {
        "pk": 4,
        "model": "utilities.country",
        "fields": {
            "iso_code": "AND",
            "name": "Andorra",
            "fema_code": "AN",
            "sort_order": 5
        }
    },
    {
        "pk": 5,
        "model": "utilities.country",
        "fields": {
            "iso_code": "AGO",
            "name": "Angola",
            "fema_code": "AO",
            "sort_order": 6
        }
    },
    {
        "pk": 6,
        "model": "utilities.country",
        "fields": {
            "iso_code": "ATG",
            "name": "Antigua and Barbuda",
            "fema_code": "AC",
            "sort_order": 7
        }
    },
    {
        "pk": 7,
        "model": "utilities.country",
        "fields": {
            "iso_code": "ARG",
            "name": "Argentina",
            "fema_code": "AR",
            "sort_order": 8
        }
    },
    {
        "pk": 8,
        "model": "utilities.country",
        "fields": {
            "iso_code": "ARM",
            "name": "Armenia",
            "fema_code": "AM",
            "sort_order": 9
        }
    },
    {
        "pk": 9,
        "model": "utilities.country",
        "fields": {
            "iso_code": "AUS",
            "name": "Australia",
            "fema_code": "AS",
            "sort_order": 10
        }
    },
    {
        "pk": 10,
        "model": "utilities.country",
        "fields": {
            "iso_code": "AUT",
            "name": "Austria",
            "fema_code": "AU",
            "sort_order": 11
        }
    },
    {
        "pk": 11,
        "model": "utilities.country",
        "fields": {
            "iso_code": "AZE",
            "name": "Azerbaijan",
            "fema_code": "AJ",
            "sort_order": 12
        }
    },
    {
        "pk": 12,
        "model": "utilities.country",
        "fields": {
            "iso_code": "BHS",
            "name": "Bahamas",
            "fema_code": "BF",
            "sort_order": 13
        }
    },
    {
        "pk": 13,
        "model": "utilities.country",
        "fields": {
            "iso_code": "BHR",
            "name": "Bahrain",
            "fema_code": "BA",
            "sort_order": 14
        }
    },
    {
        "pk": 14,
        "model": "utilities.country",
        "fields": {
            "iso_code": "BGD",
            "name": "Bangladesh",
            "fema_code": "BG",
            "sort_order": 15
        }
    },
    {
        "pk": 15,
        "model": "utilities.country",
        "fields": {
            "iso_code": "BRB",
            "name": "Barbados",
            "fema_code": "BB",
            "sort_order": 16
        }
    },
    {
        "pk": 16,
        "model": "utilities.country",
        "fields": {
            "iso_code": "BLR",
            "name": "Belarus",
            "fema_code": "BO",
            "sort_order": 17
        }
    },
    {
        "pk": 17,
        "model": "utilities.country",
        "fields": {
            "iso_code": "BEL",
            "name": "Belgium",
            "fema_code": "BE",
            "sort_order": 18
        }
    },
    {
        "pk": 18,
        "model": "utilities.country",
        "fields": {
            "iso_code": "BLZ",
            "name": "Belize",
            "fema_code": "BH",
            "sort_order": 19
        }
    },
    {
        "pk": 19,
        "model": "utilities.country",
        "fields": {
            "iso_code": "BEN",
            "name": "Benin",
            "fema_code": "BN",
            "sort_order": 20
        }
    },
    {
        "pk": 20,
        "model": "utilities.country",
        "fields": {
            "iso_code": "BTN",
            "name": "Bhutan",
            "fema_code": "BT",
            "sort_order": 21
        }
    },
    {
        "pk": 21,
        "model": "utilities.country",
        "fields": {
            "iso_code": "BOL",
            "name": "Bolivia",
            "fema_code": "BL",
            "sort_order": 22
        }
    },
    {
        "pk": 22,
        "model": "utilities.country",
        "fields": {
            "iso_code": "BIH",
            "name": "Bosnia and Herzegovina",
            "fema_code": "BK",
            "sort_order": 23
        }
    },
    {
        "pk": 23,
        "model": "utilities.country",
        "fields": {
            "iso_code": "BWA",
            "name": "Botswana",
            "fema_code": "BC",
            "sort_order": 24
        }
    },
    {
        "pk": 24,
        "model": "utilities.country",
        "fields": {
            "iso_code": "BRA",
            "name": "Brazil",
            "fema_code": "BR",
            "sort_order": 25
        }
    },
    {
        "pk": 25,
        "model": "utilities.country",
        "fields": {
            "iso_code": "BRN",
            "name": "Brunei",
            "fema_code": "BX",
            "sort_order": 26
        }
    },
    {
        "pk": 26,
        "model": "utilities.country",
        "fields": {
            "iso_code": "BGR",
            "name": "Bulgaria",
            "fema_code": "BU",
            "sort_order": 27
        }
    },
    {
        "pk": 27,
        "model": "utilities.country",
        "fields": {
            "iso_code": "BFA",
            "name": "Burkina Faso",
            "fema_code": "UV",
            "sort_order": 28
        }
    },
    {
        "pk": 28,
        "model": "utilities.country",
        "fields": {
            "iso_code": "BDI",
            "name": "Burundi",
            "fema_code": "BY",
            "sort_order": 29
        }
    },
    {
        "pk": 29,
        "model": "utilities.country",
        "fields": {
            "iso_code": "KHM",
            "name": "Cambodia",
            "fema_code": "CB",
            "sort_order": 30
        }
    },
    {
        "pk": 30,
        "model": "utilities.country",
        "fields": {
            "iso_code": "CMR",
            "name": "Cameroon",
            "fema_code": "CM",
            "sort_order": 31
        }
    },
    {
        "pk": 31,
        "model": "utilities.country",
        "fields": {
            "iso_code": "CAN",
            "name": "Canada",
            "fema_code": "CA",
            "sort_order": 32
        }
    },
    {
        "pk": 32,
        "model": "utilities.country",
        "fields": {
            "iso_code": "CPV",
            "name": "Cape Verde",
            "fema_code": "CV",
            "sort_order": 33
        }
    },
    {
        "pk": 33,
        "model": "utilities.country",
        "fields": {
            "iso_code": "CAF",
            "name": "Central African Republic",
            "fema_code": "CT",
            "sort_order": 34
        }
    },
    {
        "pk": 34,
        "model": "utilities.country",
        "fields": {
            "iso_code": "TCD",
            "name": "Chad",
            "fema_code": "CD",
            "sort_order": 35
        }
    },
    {
        "pk": 35,
        "model": "utilities.country",
        "fields": {
            "iso_code": "CHL",
            "name": "Chile",
            "fema_code": "CI",
            "sort_order": 36
        }
    },
    {
        "pk": 36,
        "model": "utilities.country",
        "fields": {
            "iso_code": "CHN",
            "name": "China",
            "fema_code": "CH",
            "sort_order": 37
        }
    },
    {
        "pk": 37,
        "model": "utilities.country",
        "fields": {
            "iso_code": "COL",
            "name": "Colombia",
            "fema_code": "CO",
            "sort_order": 38
        }
    },
    {
        "pk": 38,
        "model": "utilities.country",
        "fields": {
            "iso_code": "COM",
            "name": "Comoros",
            "fema_code": "CN",
            "sort_order": 39
        }
    },
    {
        "pk": 39,
        "model": "utilities.country",
        "fields": {
            "iso_code": "COD",
            "name": "Congo",
            "fema_code": "CF",
            "sort_order": 40
        }
    },
    {
        "pk": 40,
        "model": "utilities.country",
        "fields": {
            "iso_code": "COG",
            "name": "Congo",
            "fema_code": "CG",
            "sort_order": 41
        }
    },
    {
        "pk": 41,
        "model": "utilities.country",
        "fields": {
            "iso_code": "CRI",
            "name": "Costa Rica",
            "fema_code": "CS",
            "sort_order": 42
        }
    },
    {
        "pk": 42,
        "model": "utilities.country",
        "fields": {
            "iso_code": "CIV",
            "name": "Cote d'Ivoire (Ivory Coast)",
            "fema_code": "IV",
            "sort_order": 43
        }
    },
    {
        "pk": 43,
        "model": "utilities.country",
        "fields": {
            "iso_code": "HRV",
            "name": "Croatia",
            "fema_code": "HR",
            "sort_order": 44
        }
    },
    {
        "pk": 44,
        "model": "utilities.country",
        "fields": {
            "iso_code": "CUB",
            "name": "Cuba",
            "fema_code": "CU",
            "sort_order": 45
        }
    },
    {
        "pk": 45,
        "model": "utilities.country",
        "fields": {
            "iso_code": "CYP",
            "name": "Cyprus",
            "fema_code": "CY",
            "sort_order": 46
        }
    },
    {
        "pk": 46,
        "model": "utilities.country",
        "fields": {
            "iso_code": "CZE",
            "name": "Czech Republic",
            "fema_code": "EZ",
            "sort_order": 47
        }
    },
    {
        "pk": 47,
        "model": "utilities.country",
        "fields": {
            "iso_code": "DNK",
            "name": "Denmark",
            "fema_code": "DA",
            "sort_order": 48
        }
    },
    {
        "pk": 48,
        "model": "utilities.country",
        "fields": {
            "iso_code": "DJI",
            "name": "Djibouti",
            "fema_code": "DJ",
            "sort_order": 49
        }
    },
    {
        "pk": 49,
        "model": "utilities.country",
        "fields": {
            "iso_code": "DMA",
            "name": "Dominica",
            "fema_code": "DO",
            "sort_order": 50
        }
    },
    {
        "pk": 50,
        "model": "utilities.country",
        "fields": {
            "iso_code": "DOM",
            "name": "Dominican Republic",
            "fema_code": "DR",
            "sort_order": 51
        }
    },
    {
        "pk": 51,
        "model": "utilities.country",
        "fields": {
            "iso_code": "ECU",
            "name": "Ecuador",
            "fema_code": "EC",
            "sort_order": 52
        }
    },
    {
        "pk": 52,
        "model": "utilities.country",
        "fields": {
            "iso_code": "EGY",
            "name": "Egypt",
            "fema_code": "EG",
            "sort_order": 53
        }
    },
    {
        "pk": 53,
        "model": "utilities.country",
        "fields": {
            "iso_code": "SLV",
            "name": "El Salvador",
            "fema_code": "ES",
            "sort_order": 54
        }
    },
    {
        "pk": 54,
        "model": "utilities.country",
        "fields": {
            "iso_code": "GNQ",
            "name": "Equatorial Guinea",
            "fema_code": "EK",
            "sort_order": 55
        }
    },
    {
        "pk": 55,
        "model": "utilities.country",
        "fields": {
            "iso_code": "ERI",
            "name": "Eritrea",
            "fema_code": "ER",
            "sort_order": 56
        }
    },
    {
        "pk": 56,
        "model": "utilities.country",
        "fields": {
            "iso_code": "EST",
            "name": "Estonia",
            "fema_code": "EN",
            "sort_order": 57
        }
    },
    {
        "pk": 57,
        "model": "utilities.country",
        "fields": {
            "iso_code": "ETH",
            "name": "Ethiopia",
            "fema_code": "ET",
            "sort_order": 58
        }
    },
    {
        "pk": 58,
        "model": "utilities.country",
        "fields": {
            "iso_code": "FJI",
            "name": "Fiji",
            "fema_code": "FJ",
            "sort_order": 59
        }
    },
    {
        "pk": 59,
        "model": "utilities.country",
        "fields": {
            "iso_code": "FIN",
            "name": "Finland",
            "fema_code": "FI",
            "sort_order": 60
        }
    },
    {
        "pk": 60,
        "model": "utilities.country",
        "fields": {
            "iso_code": "FRA",
            "name": "France",
            "fema_code": "FR",
            "sort_order": 61
        }
    },
    {
        "pk": 61,
        "model": "utilities.country",
        "fields": {
            "iso_code": "GAB",
            "name": "Gabon",
            "fema_code": "GB",
            "sort_order": 62
        }
    },
    {
        "pk": 62,
        "model": "utilities.country",
        "fields": {
            "iso_code": "GMB",
            "name": "Gambia",
            "fema_code": "GA",
            "sort_order": 63
        }
    },
    {
        "pk": 63,
        "model": "utilities.country",
        "fields": {
            "iso_code": "GEO",
            "name": "Georgia",
            "fema_code": "GG",
            "sort_order": 64
        }
    },
    {
        "pk": 64,
        "model": "utilities.country",
        "fields": {
            "iso_code": "DEU",
            "name": "Germany",
            "fema_code": "GM",
            "sort_order": 65
        }
    },
    {
        "pk": 65,
        "model": "utilities.country",
        "fields": {
            "iso_code": "GHA",
            "name": "Ghana",
            "fema_code": "GH",
            "sort_order": 66
        }
    },
    {
        "pk": 66,
        "model": "utilities.country",
        "fields": {
            "iso_code": "GRC",
            "name": "Greece",
            "fema_code": "GR",
            "sort_order": 67
        }
    },
    {
        "pk": 67,
        "model": "utilities.country",
        "fields": {
            "iso_code": "GRD",
            "name": "Grenada",
            "fema_code": "GJ",
            "sort_order": 68
        }
    },
    {
        "pk": 68,
        "model": "utilities.country",
        "fields": {
            "iso_code": "GTM",
            "name": "Guatemala",
            "fema_code": "GT",
            "sort_order": 69
        }
    },
    {
        "pk": 69,
        "model": "utilities.country",
        "fields": {
            "iso_code": "GIN",
            "name": "Guinea",
            "fema_code": "GV",
            "sort_order": 70
        }
    },
    {
        "pk": 70,
        "model": "utilities.country",
        "fields": {
            "iso_code": "GNB",
            "name": "Guinea-Bissau",
            "fema_code": "PU",
            "sort_order": 71
        }
    },
    {
        "pk": 71,
        "model": "utilities.country",
        "fields": {
            "iso_code": "GUY",
            "name": "Guyana",
            "fema_code": "GY",
            "sort_order": 72
        }
    },
    {
        "pk": 72,
        "model": "utilities.country",
        "fields": {
            "iso_code": "HTI",
            "name": "Haiti",
            "fema_code": "HA",
            "sort_order": 73
        }
    },
    {
        "pk": 73,
        "model": "utilities.country",
        "fields": {
            "iso_code": "HND",
            "name": "Honduras",
            "fema_code": "HO",
            "sort_order": 74
        }
    },
    {
        "pk": 74,
        "model": "utilities.country",
        "fields": {
            "iso_code": "HUN",
            "name": "Hungary",
            "fema_code": "HU",
            "sort_order": 75
        }
    },
    {
        "pk": 75,
        "model": "utilities.country",
        "fields": {
            "iso_code": "ISL",
            "name": "Iceland",
            "fema_code": "IC",
            "sort_order": 76
        }
    },
    {
        "pk": 76,
        "model": "utilities.country",
        "fields": {
            "iso_code": "IND",
            "name": "India",
            "fema_code": "IN",
            "sort_order": 77
        }
    },
    {
        "pk": 77,
        "model": "utilities.country",
        "fields": {
            "iso_code": "IDN",
            "name": "Indonesia",
            "fema_code": "ID",
            "sort_order": 78
        }
    },
    {
        "pk": 78,
        "model": "utilities.country",
        "fields": {
            "iso_code": "IRN",
            "name": "Iran",
            "fema_code": "IR",
            "sort_order": 79
        }
    },
    {
        "pk": 79,
        "model": "utilities.country",
        "fields": {
            "iso_code": "IRQ",
            "name": "Iraq",
            "fema_code": "IZ",
            "sort_order": 80
        }
    },
    {
        "pk": 80,
        "model": "utilities.country",
        "fields": {
            "iso_code": "IRL",
            "name": "Ireland",
            "fema_code": "EI",
            "sort_order": 81
        }
    },
    {
        "pk": 81,
        "model": "utilities.country",
        "fields": {
            "iso_code": "ISR",
            "name": "Israel",
            "fema_code": "IS",
            "sort_order": 82
        }
    },
    {
        "pk": 82,
        "model": "utilities.country",
        "fields": {
            "iso_code": "ITA",
            "name": "Italy",
            "fema_code": "IT",
            "sort_order": 83
        }
    },
    {
        "pk": 83,
        "model": "utilities.country",
        "fields": {
            "iso_code": "JAM",
            "name": "Jamaica",
            "fema_code": "JM",
            "sort_order": 84
        }
    },
    {
        "pk": 84,
        "model": "utilities.country",
        "fields": {
            "iso_code": "JPN",
            "name": "Japan",
            "fema_code": "JA",
            "sort_order": 85
        }
    },
    {
        "pk": 85,
        "model": "utilities.country",
        "fields": {
            "iso_code": "JOR",
            "name": "Jordan",
            "fema_code": "JO",
            "sort_order": 86
        }
    },
    {
        "pk": 86,
        "model": "utilities.country",
        "fields": {
            "iso_code": "KAZ",
            "name": "Kazakhstan",
            "fema_code": "KZ",
            "sort_order": 87
        }
    },
    {
        "pk": 87,
        "model": "utilities.country",
        "fields": {
            "iso_code": "KEN",
            "name": "Kenya",
            "fema_code": "KE",
            "sort_order": 88
        }
    },
    {
        "pk": 88,
        "model": "utilities.country",
        "fields": {
            "iso_code": "KIR",
            "name": "Kiribati",
            "fema_code": "KR",
            "sort_order": 89
        }
    },
    {
        "pk": 89,
        "model": "utilities.country",
        "fields": {
            "iso_code": "PRK",
            "name": "North Korea",
            "fema_code": "KN",
            "sort_order": 90
        }
    },
    {
        "pk": 90,
        "model": "utilities.country",
        "fields": {
            "iso_code": "KOR",
            "name": "South Korea",
            "fema_code": "KS",
            "sort_order": 91
        }
    },
    {
        "pk": 91,
        "model": "utilities.country",
        "fields": {
            "iso_code": "KWT",
            "name": "Kuwait",
            "fema_code": "KU",
            "sort_order": 92
        }
    },
    {
        "pk": 92,
        "model": "utilities.country",
        "fields": {
            "iso_code": "KGZ",
            "name": "Kyrgyzstan",
            "fema_code": "KG",
            "sort_order": 93
        }
    },
    {
        "pk": 93,
        "model": "utilities.country",
        "fields": {
            "iso_code": "LAO",
            "name": "Laos",
            "fema_code": "LA",
            "sort_order": 94
        }
    },
    {
        "pk": 94,
        "model": "utilities.country",
        "fields": {
            "iso_code": "LVA",
            "name": "Latvia",
            "fema_code": "LG",
            "sort_order": 95
        }
    },
    {
        "pk": 95,
        "model": "utilities.country",
        "fields": {
            "iso_code": "LBN",
            "name": "Lebanon",
            "fema_code": "LE",
            "sort_order": 96
        }
    },
    {
        "pk": 96,
        "model": "utilities.country",
        "fields": {
            "iso_code": "LSO",
            "name": "Lesotho",
            "fema_code": "LT",
            "sort_order": 97
        }
    },
    {
        "pk": 97,
        "model": "utilities.country",
        "fields": {
            "iso_code": "LBR",
            "name": "Liberia",
            "fema_code": "LI",
            "sort_order": 98
        }
    },
    {
        "pk": 98,
        "model": "utilities.country",
        "fields": {
            "iso_code": "LBY",
            "name": "Libya",
            "fema_code": "LY",
            "sort_order": 99
        }
    },
    {
        "pk": 99,
        "model": "utilities.country",
        "fields": {
            "iso_code": "LIE",
            "name": "Liechtenstein",
            "fema_code": "LS",
            "sort_order": 100
        }
    },
    {
        "pk": 100,
        "model": "utilities.country",
        "fields": {
            "iso_code": "LTU",
            "name": "Lithuania",
            "fema_code": "LH",
            "sort_order": 101
        }
    },
    {
        "pk": 101,
        "model": "utilities.country",
        "fields": {
            "iso_code": "LUX",
            "name": "Luxembourg",
            "fema_code": "LU",
            "sort_order": 102
        }
    },
    {
        "pk": 102,
        "model": "utilities.country",
        "fields": {
            "iso_code": "MKD",
            "name": "Macedonia",
            "fema_code": "MK",
            "sort_order": 103
        }
    },
    {
        "pk": 103,
        "model": "utilities.country",
        "fields": {
            "iso_code": "MDG",
            "name": "Madagascar",
            "fema_code": "MA",
            "sort_order": 104
        }
    },
    {
        "pk": 104,
        "model": "utilities.country",
        "fields": {
            "iso_code": "MWI",
            "name": "Malawi",
            "fema_code": "MI",
            "sort_order": 105
        }
    },
    {
        "pk": 105,
        "model": "utilities.country",
        "fields": {
            "iso_code": "MYS",
            "name": "Malaysia",
            "fema_code": "MY",
            "sort_order": 106
        }
    },
    {
        "pk": 106,
        "model": "utilities.country",
        "fields": {
            "iso_code": "MDV",
            "name": "Maldives",
            "fema_code": "MV",
            "sort_order": 107
        }
    },
    {
        "pk": 107,
        "model": "utilities.country",
        "fields": {
            "iso_code": "MLI",
            "name": "Mali",
            "fema_code": "ML",
            "sort_order": 108
        }
    },
    {
        "pk": 108,
        "model": "utilities.country",
        "fields": {
            "iso_code": "MLT",
            "name": "Malta",
            "fema_code": "MT",
            "sort_order": 109
        }
    },
    {
        "pk": 109,
        "model": "utilities.country",
        "fields": {
            "iso_code": "MHL",
            "name": "Marshall Islands",
            "fema_code": "MH",
            "sort_order": 110
        }
    },
    {
        "pk": 110,
        "model": "utilities.country",
        "fields": {
            "iso_code": "MRT",
            "name": "Mauritania",
            "fema_code": "MR",
            "sort_order": 111
        }
    },
    {
        "pk": 111,
        "model": "utilities.country",
        "fields": {
            "iso_code": "MUS",
            "name": "Mauritius",
            "fema_code": "MP",
            "sort_order": 112
        }
    },
    {
        "pk": 112,
        "model": "utilities.country",
        "fields": {
            "iso_code": "MEX",
            "name": "Mexico",
            "fema_code": "MX",
            "sort_order": 113
        }
    },
    {
        "pk": 113,
        "model": "utilities.country",
        "fields": {
            "iso_code": "FSM",
            "name": "Micronesia",
            "fema_code": "FM",
            "sort_order": 114
        }
    },
    {
        "pk": 114,
        "model": "utilities.country",
        "fields": {
            "iso_code": "MDA",
            "name": "Moldova",
            "fema_code": "MD",
            "sort_order": 115
        }
    },
    {
        "pk": 115,
        "model": "utilities.country",
        "fields": {
            "iso_code": "MCO",
            "name": "Monaco",
            "fema_code": "MN",
            "sort_order": 116
        }
    },
    {
        "pk": 116,
        "model": "utilities.country",
        "fields": {
            "iso_code": "MNG",
            "name": "Mongolia",
            "fema_code": "MG",
            "sort_order": 117
        }
    },
    {
        "pk": 117,
        "model": "utilities.country",
        "fields": {
            "iso_code": "MNE",
            "name": "Montenegro",
            "fema_code": "MJ",
            "sort_order": 118
        }
    },
    {
        "pk": 118,
        "model": "utilities.country",
        "fields": {
            "iso_code": "MAR",
            "name": "Morocco",
            "fema_code": "MO",
            "sort_order": 119
        }
    },
    {
        "pk": 119,
        "model": "utilities.country",
        "fields": {
            "iso_code": "MOZ",
            "name": "Mozambique",
            "fema_code": "MZ",
            "sort_order": 120
        }
    },
    {
        "pk": 120,
        "model": "utilities.country",
        "fields": {
            "iso_code": "MMR",
            "name": "Myanmar (Burma)",
            "fema_code": "BM",
            "sort_order": 121
        }
    },
    {
        "pk": 121,
        "model": "utilities.country",
        "fields": {
            "iso_code": "NAM",
            "name": "Namibia",
            "fema_code": "WA",
            "sort_order": 122
        }
    },
    {
        "pk": 122,
        "model": "utilities.country",
        "fields": {
            "iso_code": "NRU",
            "name": "Nauru",
            "fema_code": "NR",
            "sort_order": 123
        }
    },
    {
        "pk": 123,
        "model": "utilities.country",
        "fields": {
            "iso_code": "NPL",
            "name": "Nepal",
            "fema_code": "NP",
            "sort_order": 124
        }
    },
    {
        "pk": 124,
        "model": "utilities.country",
        "fields": {
            "iso_code": "NLD",
            "name": "Netherlands",
            "fema_code": "NL",
            "sort_order": 125
        }
    },
    {
        "pk": 125,
        "model": "utilities.country",
        "fields": {
            "iso_code": "NZL",
            "name": "New Zealand",
            "fema_code": "NZ",
            "sort_order": 126
        }
    },
    {
        "pk": 126,
        "model": "utilities.country",
        "fields": {
            "iso_code": "NIC",
            "name": "Nicaragua",
            "fema_code": "NU",
            "sort_order": 127
        }
    },
    {
        "pk": 127,
        "model": "utilities.country",
        "fields": {
            "iso_code": "NER",
            "name": "Niger",
            "fema_code": "NG",
            "sort_order": 128
        }
    },
    {
        "pk": 128,
        "model": "utilities.country",
        "fields": {
            "iso_code": "NGA",
            "name": "Nigeria",
            "fema_code": "NI",
            "sort_order": 129
        }
    },
    {
        "pk": 129,
        "model": "utilities.country",
        "fields": {
            "iso_code": "NOR",
            "name": "Norway",
            "fema_code": "NO",
            "sort_order": 130
        }
    },
    {
        "pk": 130,
        "model": "utilities.country",
        "fields": {
            "iso_code": "OMN",
            "name": "Oman",
            "fema_code": "MU",
            "sort_order": 131
        }
    },
    {
        "pk": 131,
        "model": "utilities.country",
        "fields": {
            "iso_code": "PAK",
            "name": "Pakistan",
            "fema_code": "PK",
            "sort_order": 132
        }
    },
    {
        "pk": 132,
        "model": "utilities.country",
        "fields": {
            "iso_code": "PLW",
            "name": "Palau",
            "fema_code": "PW",
            "sort_order": 133
        }
    },
    {
        "pk": 133,
        "model": "utilities.country",
        "fields": {
            "iso_code": "PAN",
            "name": "Panama",
            "fema_code": "PM",
            "sort_order": 134
        }
    },
    {
        "pk": 134,
        "model": "utilities.country",
        "fields": {
            "iso_code": "PNG",
            "name": "Papua New Guinea",
            "fema_code": "PP",
            "sort_order": 135
        }
    },
    {
        "pk": 135,
        "model": "utilities.country",
        "fields": {
            "iso_code": "PRY",
            "name": "Paraguay",
            "fema_code": "PA",
            "sort_order": 136
        }
    },
    {
        "pk": 136,
        "model": "utilities.country",
        "fields": {
            "iso_code": "PER",
            "name": "Peru",
            "fema_code": "PE",
            "sort_order": 137
        }
    },
    {
        "pk": 137,
        "model": "utilities.country",
        "fields": {
            "iso_code": "PHL",
            "name": "Philippines",
            "fema_code": "RP",
            "sort_order": 138
        }
    },
    {
        "pk": 138,
        "model": "utilities.country",
        "fields": {
            "iso_code": "POL",
            "name": "Poland",
            "fema_code": "PL",
            "sort_order": 139
        }
    },
    {
        "pk": 139,
        "model": "utilities.country",
        "fields": {
            "iso_code": "PRT",
            "name": "Portugal",
            "fema_code": "PO",
            "sort_order": 140
        }
    },
    {
        "pk": 140,
        "model": "utilities.country",
        "fields": {
            "iso_code": "QAT",
            "name": "Qatar",
            "fema_code": "QA",
            "sort_order": 141
        }
    },
    {
        "pk": 141,
        "model": "utilities.country",
        "fields": {
            "iso_code": "ROU",
            "name": "Romania",
            "fema_code": "RO",
            "sort_order": 142
        }
    },
    {
        "pk": 142,
        "model": "utilities.country",
        "fields": {
            "iso_code": "RUS",
            "name": "Russia",
            "fema_code": "RS",
            "sort_order": 143
        }
    },
    {
        "pk": 143,
        "model": "utilities.country",
        "fields": {
            "iso_code": "RWA",
            "name": "Rwanda",
            "fema_code": "RW",
            "sort_order": 144
        }
    },
    {
        "pk": 144,
        "model": "utilities.country",
        "fields": {
            "iso_code": "KNA",
            "name": "Saint Kitts and Nevis",
            "fema_code": "SC",
            "sort_order": 145
        }
    },
    {
        "pk": 145,
        "model": "utilities.country",
        "fields": {
            "iso_code": "LCA",
            "name": "Saint Lucia",
            "fema_code": "ST",
            "sort_order": 146
        }
    },
    {
        "pk": 146,
        "model": "utilities.country",
        "fields": {
            "iso_code": "VCT",
            "name": "Saint Vincent and the Grenadines",
            "fema_code": "VC",
            "sort_order": 147
        }
    },
    {
        "pk": 147,
        "model": "utilities.country",
        "fields": {
            "iso_code": "WSM",
            "name": "Samoa",
            "fema_code": "WS",
            "sort_order": 148
        }
    },
    {
        "pk": 148,
        "model": "utilities.country",
        "fields": {
            "iso_code": "SMR",
            "name": "San Marino",
            "fema_code": "SM",
            "sort_order": 149
        }
    },
    {
        "pk": 149,
        "model": "utilities.country",
        "fields": {
            "iso_code": "STP",
            "name": "Sao Tome and Principe",
            "fema_code": "TP",
            "sort_order": 150
        }
    },
    {
        "pk": 150,
        "model": "utilities.country",
        "fields": {
            "iso_code": "SAU",
            "name": "Saudi Arabia",
            "fema_code": "SA",
            "sort_order": 151
        }
    },
    {
        "pk": 151,
        "model": "utilities.country",
        "fields": {
            "iso_code": "SEN",
            "name": "Senegal",
            "fema_code": "SG",
            "sort_order": 152
        }
    },
    {
        "pk": 152,
        "model": "utilities.country",
        "fields": {
            "iso_code": "SRB",
            "name": "Serbia",
            "fema_code": "RB",
            "sort_order": 153
        }
    },
    {
        "pk": 153,
        "model": "utilities.country",
        "fields": {
            "iso_code": "SYC",
            "name": "Seychelles",
            "fema_code": "SE",
            "sort_order": 154
        }
    },
    {
        "pk": 154,
        "model": "utilities.country",
        "fields": {
            "iso_code": "SLE",
            "name": "Sierra Leone",
            "fema_code": "SL",
            "sort_order": 155
        }
    },
    {
        "pk": 155,
        "model": "utilities.country",
        "fields": {
            "iso_code": "SGP",
            "name": "Singapore",
            "fema_code": "SN",
            "sort_order": 156
        }
    },
    {
        "pk": 156,
        "model": "utilities.country",
        "fields": {
            "iso_code": "SVK",
            "name": "Slovakia",
            "fema_code": "LO",
            "sort_order": 157
        }
    },
    {
        "pk": 157,
        "model": "utilities.country",
        "fields": {
            "iso_code": "SVN",
            "name": "Slovenia",
            "fema_code": "SI",
            "sort_order": 158
        }
    },
    {
        "pk": 158,
        "model": "utilities.country",
        "fields": {
            "iso_code": "SLB",
            "name": "Solomon Islands",
            "fema_code": "BP",
            "sort_order": 159
        }
    },
    {
        "pk": 159,
        "model": "utilities.country",
        "fields": {
            "iso_code": "SOM",
            "name": "Somalia",
            "fema_code": "SO",
            "sort_order": 160
        }
    },
    {
        "pk": 160,
        "model": "utilities.country",
        "fields": {
            "iso_code": "ZAF",
            "name": "South Africa",
            "fema_code": "SF",
            "sort_order": 161
        }
    },
    {
        "pk": 161,
        "model": "utilities.country",
        "fields": {
            "iso_code": "ESP",
            "name": "Spain",
            "fema_code": "SP",
            "sort_order": 162
        }
    },
    {
        "pk": 162,
        "model": "utilities.country",
        "fields": {
            "iso_code": "LKA",
            "name": "Sri Lanka",
            "fema_code": "CE",
            "sort_order": 163
        }
    },
    {
        "pk": 163,
        "model": "utilities.country",
        "fields": {
            "iso_code": "SDN",
            "name": "Sudan",
            "fema_code": "SU",
            "sort_order": 164
        }
    },
    {
        "pk": 164,
        "model": "utilities.country",
        "fields": {
            "iso_code": "SUR",
            "name": "Suriname",
            "fema_code": "NS",
            "sort_order": 165
        }
    },
    {
        "pk": 165,
        "model": "utilities.country",
        "fields": {
            "iso_code": "SWZ",
            "name": "Swaziland",
            "fema_code": "WZ",
            "sort_order": 166
        }
    },
    {
        "pk": 166,
        "model": "utilities.country",
        "fields": {
            "iso_code": "SWE",
            "name": "Sweden",
            "fema_code": "SW",
            "sort_order": 167
        }
    },
    {
        "pk": 167,
        "model": "utilities.country",
        "fields": {
            "iso_code": "CHE",
            "name": "Switzerland",
            "fema_code": "SZ",
            "sort_order": 168
        }
    },
    {
        "pk": 168,
        "model": "utilities.country",
        "fields": {
            "iso_code": "SYR",
            "name": "Syria",
            "fema_code": "SY",
            "sort_order": 169
        }
    },
    {
        "pk": 169,
        "model": "utilities.country",
        "fields": {
            "iso_code": "TJK",
            "name": "Tajikistan",
            "fema_code": "TI",
            "sort_order": 170
        }
    },
    {
        "pk": 170,
        "model": "utilities.country",
        "fields": {
            "iso_code": "TZA",
            "name": "Tanzania",
            "fema_code": "TZ",
            "sort_order": 171
        }
    },
    {
        "pk": 171,
        "model": "utilities.country",
        "fields": {
            "iso_code": "THA",
            "name": "Thailand",
            "fema_code": "TH",
            "sort_order": 172
        }
    },
    {
        "pk": 172,
        "model": "utilities.country",
        "fields": {
            "iso_code": "TLS",
            "name": "Timor-Leste (East Timor)",
            "fema_code": "TT",
            "sort_order": 173
        }
    },
    {
        "pk": 173,
        "model": "utilities.country",
        "fields": {
            "iso_code": "TGO",
            "name": "Togo",
            "fema_code": "TO",
            "sort_order": 174
        }
    },
    {
        "pk": 174,
        "model": "utilities.country",
        "fields": {
            "iso_code": "TON",
            "name": "Tonga",
            "fema_code": "TN",
            "sort_order": 175
        }
    },
    {
        "pk": 175,
        "model": "utilities.country",
        "fields": {
            "iso_code": "TTO",
            "name": "Trinidad and Tobago",
            "fema_code": "TD",
            "sort_order": 176
        }
    },
    {
        "pk": 176,
        "model": "utilities.country",
        "fields": {
            "iso_code": "TUN",
            "name": "Tunisia",
            "fema_code": "TS",
            "sort_order": 177
        }
    },
    {
        "pk": 177,
        "model": "utilities.country",
        "fields": {
            "iso_code": "TUR",
            "name": "Turkey",
            "fema_code": "TU",
            "sort_order": 178
        }
    },
    {
        "pk": 178,
        "model": "utilities.country",
        "fields": {
            "iso_code": "TKM",
            "name": "Turkmenistan",
            "fema_code": "TX",
            "sort_order": 179
        }
    },
    {
        "pk": 179,
        "model": "utilities.country",
        "fields": {
            "iso_code": "TUV",
            "name": "Tuvalu",
            "fema_code": "TV",
            "sort_order": 180
        }
    },
    {
        "pk": 180,
        "model": "utilities.country",
        "fields": {
            "iso_code": "UGA",
            "name": "Uganda",
            "fema_code": "UG",
            "sort_order": 181
        }
    },
    {
        "pk": 181,
        "model": "utilities.country",
        "fields": {
            "iso_code": "UKR",
            "name": "Ukraine",
            "fema_code": "UP",
            "sort_order": 182
        }
    },
    {
        "pk": 182,
        "model": "utilities.country",
        "fields": {
            "iso_code": "ARE",
            "name": "United Arab Emirates",
            "fema_code": "AE",
            "sort_order": 183
        }
    },
    {
        "pk": 183,
        "model": "utilities.country",
        "fields": {
            "iso_code": "GBR",
            "name": "United Kingdom",
            "fema_code": "UK",
            "sort_order": 184
        }
    },
    {
        "pk": 185,
        "model": "utilities.country",
        "fields": {
            "iso_code": "URY",
            "name": "Uruguay",
            "fema_code": "UY",
            "sort_order": 186
        }
    },
    {
        "pk": 186,
        "model": "utilities.country",
        "fields": {
            "iso_code": "UZB",
            "name": "Uzbekistan",
            "fema_code": "UZ",
            "sort_order": 187
        }
    },
    {
        "pk": 187,
        "model": "utilities.country",
        "fields": {
            "iso_code": "VUT",
            "name": "Vanuatu",
            "fema_code": "NH",
            "sort_order": 188
        }
    },
    {
        "pk": 188,
        "model": "utilities.country",
        "fields": {
            "iso_code": "VAT",
            "name": "Vatican City",
            "fema_code": "VT",
            "sort_order": 189
        }
    },
    {
        "pk": 189,
        "model": "utilities.country",
        "fields": {
            "iso_code": "VEN",
            "name": "Venezuela",
            "fema_code": "VE",
            "sort_order": 190
        }
    },
    {
        "pk": 190,
        "model": "utilities.country",
        "fields": {
            "iso_code": "VNM",
            "name": "Vietnam",
            "fema_code": "VM",
            "sort_order": 191
        }
    },
    {
        "pk": 191,
        "model": "utilities.country",
        "fields": {
            "iso_code": "YEM",
            "name": "Yemen",
            "fema_code": "YM",
            "sort_order": 192
        }
    },
    {
        "pk": 192,
        "model": "utilities.country",
        "fields": {
            "iso_code": "ZMB",
            "name": "Zambia",
            "fema_code": "ZA",
            "sort_order": 193
        }
    },
    {
        "pk": 193,
        "model": "utilities.country",
        "fields": {
            "iso_code": "ZWE",
            "name": "Zimbabwe",
            "fema_code": "ZI",
            "sort_order": 194
        }
    },

    {
        "pk": 1,
        "model": "utilities.language",
        "fields": {
            "code": "en",
            "language": "English"
        }
    },

    {
        "pk": 14,
        "model": "utilities.state",
        "fields": {
            "fema_region": 5,
            "name": "Illinois",
            "fema_code": "IL"
        }
    },
    {
        "pk": 15,
        "model": "utilities.state",
        "fields": {
            "fema_region": 5,
            "name": "Indiana",
            "fema_code": "IN"
        }
    },
    {
        "pk": 35,
        "model": "utilities.state",
        "fields": {
            "fema_region": 5,
            "name": "Michigan",
            "fema_code": "MI"
        }
    },
    {
        "pk": 36,
        "model": "utilities.state",
        "fields": {
            "fema_region": 5,
            "name": "Minnesota",
            "fema_code": "MN"
        }
    },
    {
        "pk": 50,
        "model": "utilities.state",
        "fields": {
            "fema_region": 5,
            "name": "Wisconsin",
            "fema_code": "WI"
        }
    },
    {
        "pk": 4,
        "model": "utilities.state",
        "fields": {
            "fema_region": 6,
            "name": "Arkansas",
            "fema_code": "AR"
        }
    },
    {
        "pk": 19,
        "model": "utilities.state",
        "fields": {
            "fema_region": 6,
            "name": "Louisiana",
            "fema_code": "LA"
        }
    },
    {
        "pk": 26,
        "model": "utilities.state",
        "fields": {
            "fema_region": 6,
            "name": "New Mexico",
            "fema_code": "NM"
        }
    },
    {
        "pk": 31,
        "model": "utilities.state",
        "fields": {
            "fema_region": 6,
            "name": "Oklahoma",
            "fema_code": "OK"
        }
    },
    {
        "pk": 44,
        "model": "utilities.state",
        "fields": {
            "fema_region": 6,
            "name": "Texas",
            "fema_code": "TX"
        }
    },
    {
        "pk": 17,
        "model": "utilities.state",
        "fields": {
            "fema_region": 7,
            "name": "Kansas",
            "fema_code": "KS"
        }
    },
    {
        "pk": 38,
        "model": "utilities.state",
        "fields": {
            "fema_region": 7,
            "name": "Missouri",
            "fema_code": "MO"
        }
    },
    {
        "pk": 22,
        "model": "utilities.state",
        "fields": {
            "fema_region": 7,
            "name": "Nebraska",
            "fema_code": "NE"
        }
    },
    {
        "pk": 16,
        "model": "utilities.state",
        "fields": {
            "fema_region": 7,
            "name": "Iowa",
            "fema_code": "IA"
        }
    },
    {
        "pk": 42,
        "model": "utilities.state",
        "fields": {
            "fema_region": 8,
            "name": "South Dakota",
            "fema_code": "SD"
        }
    },
    {
        "pk": 51,
        "model": "utilities.state",
        "fields": {
            "fema_region": 8,
            "name": "Wyoming",
            "fema_code": "WY"
        }
    },
    {
        "pk": 45,
        "model": "utilities.state",
        "fields": {
            "fema_region": 8,
            "name": "Utah",
            "fema_code": "UT"
        }
    },
    {
        "pk": 6,
        "model": "utilities.state",
        "fields": {
            "fema_region": 8,
            "name": "Colorado",
            "fema_code": "CO"
        }
    },
    {
        "pk": 21,
        "model": "utilities.state",
        "fields": {
            "fema_region": 8,
            "name": "Montana",
            "fema_code": "MT"
        }
    },
    {
        "pk": 29,
        "model": "utilities.state",
        "fields": {
            "fema_region": 8,
            "name": "North Dakota",
            "fema_code": "ND"
        }
    },
    {
        "pk": 56,
        "model": "utilities.state",
        "fields": {
            "fema_region": 9,
            "name": "Northern Mariana Islands",
            "fema_code": "MP"
        }
    },
    {
        "pk": 3,
        "model": "utilities.state",
        "fields": {
            "fema_region": 9,
            "name": "Arizona",
            "fema_code": "AZ"
        }
    },
    {
        "pk": 5,
        "model": "utilities.state",
        "fields": {
            "fema_region": 9,
            "name": "California",
            "fema_code": "CA"
        }
    },
    {
        "pk": 12,
        "model": "utilities.state",
        "fields": {
            "fema_region": 9,
            "name": "Hawaii",
            "fema_code": "HI"
        }
    },
    {
        "pk": 23,
        "model": "utilities.state",
        "fields": {
            "fema_region": 9,
            "name": "Nevada",
            "fema_code": "NV"
        }
    },
    {
        "pk": 60,
        "model": "utilities.state",
        "fields": {
            "fema_region": 1,
            "name": "APO/FPO (AA)",
            "fema_code": "AA"
        }
    },
    {
        "pk": 62,
        "model": "utilities.state",
        "fields": {
            "fema_region": 1,
            "name": "APO/FPO (AP)",
            "fema_code": "AP"
        }
    },
    {
        "pk": 61,
        "model": "utilities.state",
        "fields": {
            "fema_region": 1,
            "name": "APO/FPO (AE)",
            "fema_code": "AE"
        }
    },
    {
        "pk": 40,
        "model": "utilities.state",
        "fields": {
            "fema_region": 1,
            "name": "Rhode Island",
            "fema_code": "RI"
        }
    },
    {
        "pk": 46,
        "model": "utilities.state",
        "fields": {
            "fema_region": 1,
            "name": "Vermont",
            "fema_code": "VT"
        }
    },
    {
        "pk": 20,
        "model": "utilities.state",
        "fields": {
            "fema_region": 1,
            "name": "Maine",
            "fema_code": "ME"
        }
    },
    {
        "pk": 7,
        "model": "utilities.state",
        "fields": {
            "fema_region": 1,
            "name": "Connecticut",
            "fema_code": "CT"
        }
    },
    {
        "pk": 34,
        "model": "utilities.state",
        "fields": {
            "fema_region": 1,
            "name": "Massachusetts",
            "fema_code": "MA"
        }
    },
    {
        "pk": 24,
        "model": "utilities.state",
        "fields": {
            "fema_region": 1,
            "name": "New Hampshire",
            "fema_code": "NH"
        }
    },
    {
        "pk": 25,
        "model": "utilities.state",
        "fields": {
            "fema_region": 2,
            "name": "New Jersey",
            "fema_code": "NJ"
        }
    },
    {
        "pk": 59,
        "model": "utilities.state",
        "fields": {
            "fema_region": 2,
            "name": "U.S. Virgin Islands",
            "fema_code": "VI"
        }
    },
    {
        "pk": 27,
        "model": "utilities.state",
        "fields": {
            "fema_region": 2,
            "name": "New York",
            "fema_code": "NY"
        }
    },
    {
        "pk": 58,
        "model": "utilities.state",
        "fields": {
            "fema_region": 2,
            "name": "Puerto Rico",
            "fema_code": "PR"
        }
    },
    {
        "pk": 47,
        "model": "utilities.state",
        "fields": {
            "fema_region": 3,
            "name": "Virginia",
            "fema_code": "VA"
        }
    },
    {
        "pk": 9,
        "model": "utilities.state",
        "fields": {
            "fema_region": 3,
            "name": "District of Columbia",
            "fema_code": "DC"
        }
    },
    {
        "pk": 8,
        "model": "utilities.state",
        "fields": {
            "fema_region": 3,
            "name": "Delaware",
            "fema_code": "DE"
        }
    },
    {
        "pk": 33,
        "model": "utilities.state",
        "fields": {
            "fema_region": 3,
            "name": "Maryland",
            "fema_code": "MD"
        }
    },
    {
        "pk": 39,
        "model": "utilities.state",
        "fields": {
            "fema_region": 3,
            "name": "Pennsylvania",
            "fema_code": "PA"
        }
    },
    {
        "pk": 49,
        "model": "utilities.state",
        "fields": {
            "fema_region": 3,
            "name": "West Virginia",
            "fema_code": "WV"
        }
    },
    {
        "pk": 28,
        "model": "utilities.state",
        "fields": {
            "fema_region": 4,
            "name": "North Carolina",
            "fema_code": "NC"
        }
    },
    {
        "pk": 41,
        "model": "utilities.state",
        "fields": {
            "fema_region": 4,
            "name": "South Carolina",
            "fema_code": "SC"
        }
    },
    {
        "pk": 1,
        "model": "utilities.state",
        "fields": {
            "fema_region": 4,
            "name": "Alabama",
            "fema_code": "AL"
        }
    },
    {
        "pk": 10,
        "model": "utilities.state",
        "fields": {
            "fema_region": 4,
            "name": "Florida",
            "fema_code": "FL"
        }
    },
    {
        "pk": 11,
        "model": "utilities.state",
        "fields": {
            "fema_region": 4,
            "name": "Georgia",
            "fema_code": "GA"
        }
    },
    {
        "pk": 18,
        "model": "utilities.state",
        "fields": {
            "fema_region": 4,
            "name": "Kentucky",
            "fema_code": "KY"
        }
    },
    {
        "pk": 37,
        "model": "utilities.state",
        "fields": {
            "fema_region": 4,
            "name": "Mississippi",
            "fema_code": "MS"
        }
    },
    {
        "pk": 43,
        "model": "utilities.state",
        "fields": {
            "fema_region": 4,
            "name": "Tennessee",
            "fema_code": "TN"
        }
    },
    {
        "pk": 30,
        "model": "utilities.state",
        "fields": {
            "fema_region": 5,
            "name": "Ohio",
            "fema_code": "OH"
        }
    },
    {
        "pk": 52,
        "model": "utilities.state",
        "fields": {
            "fema_region": 9,
            "name": "American Samoa",
            "fema_code": "AS"
        }
    },
    {
        "pk": 54,
        "model": "utilities.state",
        "fields": {
            "fema_region": 9,
            "name": "Guam",
            "fema_code": "GU"
        }
    },
    {
        "pk": 53,
        "model": "utilities.state",
        "fields": {
            "fema_region": 9,
            "name": "Federal States of Micronesia",
            "fema_code": "FM"
        }
    },
    {
        "pk": 55,
        "model": "utilities.state",
        "fields": {
            "fema_region": 9,
            "name": "Marshell Islands",
            "fema_code": "MH"
        }
    },
    {
        "pk": 57,
        "model": "utilities.state",
        "fields": {
            "fema_region": 9,
            "name": "Palau",
            "fema_code": "PW"
        }
    },
    {
        "pk": 32,
        "model": "utilities.state",
        "fields": {
            "fema_region": 10,
            "name": "Oregon",
            "fema_code": "OR"
        }
    },
    {
        "pk": 2,
        "model": "utilities.state",
        "fields": {
            "fema_region": 10,
            "name": "Alaska",
            "fema_code": "AK"
        }
    },
    {
        "pk": 48,
        "model": "utilities.state",
        "fields": {
            "fema_region": 10,
            "name": "Washington",
            "fema_code": "WA"
        }
    },
    {
        "pk": 13,
        "model": "utilities.state",
        "fields": {
            "fema_region": 10,
            "name": "Idaho",
            "fema_code": "ID"
        }
    },

    {
        "pk": 1,
        "model": "utilities.discipline",
        "fields": {
            "code": "AGS",
            "description": "Agricultural Safety (Pre and Post Harvest)"
        }
    },
    {
        "pk": 2,
        "model": "utilities.discipline",
        "fields": {
            "code": "AES",
            "description": "Animal Emergency Services"
        }
    },
    {
        "pk": 3,
        "model": "utilities.discipline",
        "fields": {
            "code": "CV",
            "description": "Citizen/Community Volunteer"
        }
    },
    {
        "pk": 4,
        "model": "utilities.discipline",
        "fields": {
            "code": "EM",
            "description": "Emergency Management"
        }
    },
    {
        "pk": 5,
        "model": "utilities.discipline",
        "fields": {
            "code": "EMS",
            "description": "Emergency Medical Services"
        }
    },
    {
        "pk": 6,
        "model": "utilities.discipline",
        "fields": {
            "code": "FS",
            "description": "Fire Services"
        }
    },
    {
        "pk": 7,
        "model": "utilities.discipline",
        "fields": {
            "code": "GA",
            "description": "Governmental Administrative"
        }
    },
    {
        "pk": 8,
        "model": "utilities.discipline",
        "fields": {
            "code": "HM",
            "description": "Hazardous Materials"
        }
    },
    {
        "pk": 9,
        "model": "utilities.discipline",
        "fields": {
            "code": "HC",
            "description": "Healthcare"
        }
    },
    {
        "pk": 10,
        "model": "utilities.discipline",
        "fields": {
            "code": "IT",
            "description": "Information Technology"
        }
    },
    {
        "pk": 11,
        "model": "utilities.discipline",
        "fields": {
            "code": "LE",
            "description": "Law Enforcement"
        }
    },
    {
        "pk": 12,
        "model": "utilities.discipline",
        "fields": {
            "code": "PSP",
            "description": "Private Sector / Corporate Security and Safety"
        }
    },
    {
        "pk": 13,
        "model": "utilities.discipline",
        "fields": {
            "code": "PH",
            "description": "Public Health"
        }
    },
    {
        "pk": 14,
        "model": "utilities.discipline",
        "fields": {
            "code": "PSC",
            "description": "Public Safety Communication"
        }
    },
    {
        "pk": 15,
        "model": "utilities.discipline",
        "fields": {
            "code": "PW",
            "description": "Public Works"
        }
    },
    {
        "pk": 16,
        "model": "utilities.discipline",
        "fields": {
            "code": "SR",
            "description": "Search & Rescue"
        }
    },
    {
        "pk": 17,
        "model": "utilities.discipline",
        "fields": {
            "code": "TS",
            "description": "Transportation Security (Air, Water, Ground, Port)"
        }
    },
    {
        "pk": 18,
        "model": "utilities.discipline",
        "fields": {
            "code": "OTH",
            "description": "Other"
        }
    },
    {
        "pk": 19,
        "model": "utilities.discipline",
        "fields": {
            "code": "OTH",
            "description": "Firefighting"
        }
    },
    {
        "pk": 20,
        "model": "utilities.discipline",
        "fields": {
            "code": "OTH",
            "description": "General Public"
        }
    },

    {
        "pk": 1,
        "model": "utilities.governmentlevel",
        "fields": {
            "code": "L",
            "description": "Local",
            "sort_order": 1
        }
    },
    {
        "pk": 6,
        "model": "utilities.governmentlevel",
        "fields": {
            "code": "T",
            "description": "Tribal",
            "sort_order": 2
        }
    },
    {
        "pk": 5,
        "model": "utilities.governmentlevel",
        "fields": {
            "code": "S",
            "description": "State",
            "sort_order": 3
        }
    },
    {
        "pk": 2,
        "model": "utilities.governmentlevel",
        "fields": {
            "code": "DF",
            "description": "Federal (DHS)",
            "sort_order": 4
        }
    },
    {
        "pk": 3,
        "model": "utilities.governmentlevel",
        "fields": {
            "code": "NF",
            "description": "Federal (Non-DHS)",
            "sort_order": 5
        }
    },
    {
        "pk": 4,
        "model": "utilities.governmentlevel",
        "fields": {
            "code": "NA",
            "description": "Not applicable",
            "sort_order": 6
        }
    }
]